##########################################################################
# N.B.: line starting with # is a comment
#
# Content:
# --------
# Atomic properties
#
# File format:
# ------------
# Col.1  -  Charge Z (from Z=1 to 109)
# Col.2  -  Element name
# Col.3  -  Weighted isotopic abundances [amu]  from Particle Data Group (PDG)
# Col.4  -  First Ionisation Potential [eV]     from EPJ C3, 74 (1998)
# Col.5  -  Volatility temperature [K]          from Lodders, ApJ 591, 1220 (2003)
# Col.6  -  Half-fraction volatility [K]        from Lodders, ApJ 591, 1220 (2003)
# Col.7  -  K-shell ionisation energy [keV]     from Storm and Israel, Nuc. Data Tab. A7, 565-681 (1970)
# Col.8  -  Mean Ionisation potential [eV]      from Phys.Lett.B 667 (2008) - http://physics.nist.gov/PhysRefData/XrayMassCoef/tab1.html
#
# N.B.: if you add a column, don't forget to modify TUAtomProperties.h and .cc
# Z   name weight_m[amu]   FIP(eV)     Tc      50%Tc     K(keV)      I(eV)
##############################################################

  1   H     1.00794        13.5984     182.       0.     0.014       19.2
  2   He    4.002602       24.5874       3.       0.     0.025       41.8
  3   Li    6.941           5.3917       0.    1142.     0.055       40.0
  4   Be    9.012182        9.3227       0.    1452.     0.111       63.7
  5   B     10.811          8.2980       0.     908.     0.188       76.0
  6   C     12.0107        11.2603      78.      40.     0.284       78.0
  7   N     14.00674       14.5341     131.     123.     0.400       82.0
  8   O     15.9994        13.6181     182.     180.     0.533       95.0
  9   F     18.9984032     17.4228     739.     734.     0.687       115.0
 10   Ne    20.1797        21.5646       9.3      9.1    0.867       137.0
 11   Na    22.98977        5.1391       0.     958.     1.073       149.0
 12   Mg    24.3050         7.6462    1397.    1336.     1.305       156.0
 13   Al    26.981538       5.9858    1677.    1653.     1.560       166.0
 14   Si    28.0855         8.1517    1529.    1310.     1.839       173.0
 15   P     30.973761      10.4867    1248.    1229.     2.144       173.0
 16   S     32.066         10.3600     704.     664.     2.472       180.0
 17   Cl    35.4527        12.9676     954.     948.     2.824       174.0
 18   Ar    39.948         15.7596      48.      47.     3.203       188.0
 19   K     39.0983         4.3407       0.    1006.     3.607       190.0
 20   Ca    40.078          6.1132    1659.    1517.     4.037       191.0
 21   Sc    44.95591        6.5615       0.    1659.     4.491       216.0
 22   Ti    47.967          6.8281    1593.    1582.     4.966       233.0
 23   V     50.9415         6.7463       0.    1429.     5.465       245.0
 24   Cr    51.9961         6.7665       0.    1296.     5.989       257.0
 25   Mn    54.938049       7.4340       0.    1158.     6.539       272.0
 26   Fe    55.845          7.9024    1357.    1334.     7.112       286.0
 27   Co    58.9332         7.8810       0.    1352.     7.709       297.0
 28   Ni    58.6934         7.6398       0.    1353.     8.332       311.0
 29   Cu    63.546          7.7264       0.    1037.     8.981       322.0
 30   Zn    65.39           9.3942       0.     726.     9.659       330.0
 31   Ga    69.723          5.9993       0.     968.    10.367       334.0
 32   Ge    72.61           7.8994       0.     883.    11.104       350.0
 33   As    74.9216         9.7886       0.    1065.    11.867       347.0
 34   Se    78.96           9.7524       0.     697.    12.658       348.0
 35   Br    79.904          11.8138      0.     546.    13.474       343.0
 36   Kr    83.80           13.9996     53.      52.    14.323       352.0
 37   Rb    85.4678         4.1771       0.     800.    15.200       363.0
 38   Sr    87.62           5.6949       0.    1464.    16.105       366.0
 39   Y     88.90585        6.2171       0.    1659.    17.038       379.0
 40   Zr    91.224          6.6339    1764.    1741.    17.998       393.0
 41   Nb    92.90638        6.7589       0.    1559.    18.986       417.0
 42   Mo    95.94           7.0924       0.    1590.    20.000       424.0
 43   Tc    97.907215       7.28         0.       0.    21.044       428.0
 44   Ru    101.07          7.3605       0.    1551.    22.117       441.0
 45   Rh    102.9055        7.4589       0.    1392.    23.220       449.0
 46   Pd    106.42          8.3386       0.    1324.    24.350       470.0
 47   Ag    107.8682        7.5763       0.     996.    25.514       470.0
 48   Cd    112.411         8.9938       0.     652.    26.711       469.0
 49   In    114.818         5.7864       0.     536.    27.940       488.0
 50   Sn    118.710         7.3439       0.     704.    29.200       488.0
 51   Sb    121.760         8.6084       0.     979.    30.491       487.0
 52   Te    122.60          9.0096       0.     709.    31.814       485.0
 53   I     126.90447       10.4513      0.     535.    33.170       491.0
 54   Xe    131.29          12.1298     69.      68.    34.561       482.0
 55   Cs    132.90545       3.8939       0.     799.    35.985       488.0
 56   Ba    137.327         5.2117       0.    1455.    37.441       491.0
 57   La    138.9055        5.5770       0.    1578.    38.925       501.0
 58   Ce    140.116         5.5384       0.    1478.    40.443       523.0
 59   Pr    140.90765       5.464        0.    1582.    41.991       535.0
 60   Nd    144.24          5.5250       0.    1602.    43.569       546.0
 61   Pm    144.912745      5.58         0.       0.    45.184       560.0
 62   Sm    150.36          5.6436       0.    1590.    46.834       574.0
 63   Eu    151.964         5.6704       0.    1356.    48.519       580.0
 64   Gd    157.25          6.1501       0.    1659.    50.239       591.0
 65   Tb    158.92534       5.8638       0.    1659.    51.996       614.0
 66   Dy    162.50          5.9389       0.    1659.    53.788       628.0
 67   Ho    164.93032       6.0215       0.    1659.    55.618       650.0
 68   Er    167.26          6.1077       0.    1659.    57.486       658.0
 69   Tm    168.93421       6.1843       0.    1659.    59.390       674.0
 70   Yb    173.04          6.2542       0.    1487.    61.332       684.0
 71   Lu    174.967         5.4259       0.    1659.    63.316       694.0
 72   Hf    178.49          6.8251    1703.    1684.    65.345       705.0
 73   Ta    180.9479        7.5496       0.    1573.    67.416       718.0
 74   W     183.84          7.8640       0.    1789.    69.525       727.0
 75   Re    186.207         7.8335       0.    1821.    71.676       736.0
 76   Os    190.23          8.4382       0.    1812.    73.871       746.0
 77   Ir    192.217         8.9670       0.    1603.    76.111       757.0
 78   Pt    195.078         8.9587       0.    1408.    78.395       790.0
 79   Au    196.96655       9.2255       0.    1060.    80.725       790.0
 80   Hg    200.59          10.4375      0.     252.    83.102       800.0
 81   Tl    204.3833        6.1082       0.     532.    85.530       810.0
 82   Pb    207.2           7.4167       0.     727.    88.004       823.0
 83   Bi    208.98038       7.2856       0.     746.    90.526       823.0
 84   Po    208.982415      8.4167       0.       0.    93.105       830.0
 85   At    209.987131      9.           0.       0.    95.730       825.0
 86   Rn    222.017570      10.7485      0.       0.    98.404       794.0
 87   Fr    223.019731      4.0727       0.       0.   101.137       827.0
 88   Ra    226.025402      5.2784       0.       0.   103.922       826.0
 89   Ac    227.027747      5.17         0.       0.   106.759       841.0
 90   Th    232.0381        6.3067       0.    1659.   109.651       847.0
 91   Pa    231.03588       5.89         0.       0.   112.601       878.0
 92   U     238.0289        6.1941       0.    1610.   115.606       890.0
 93   Np    237.048166      6.2657       0.       0.   118.670        0.
 94   Pu    244.064197      6.0262       0.       0.   121.797        0.
 95   Am    243.061372      5.9738       0.       0.   124.990        0.
 96   Cm    247.070346      6.02         0.       0.   128.253        0.
 97   Bk    247.070298      6.23         0.       0.   131.590        0.
 98   Cf    251.070298      6.30         0.       0.   135.005        0.
 99   Es    252.08297       6.42         0.       0.   138.502        0.
100   Fm    257.095096      6.50         0.       0.   142.085        0.
101   Md    256.098427      6.58         0.       0.     0.           0.
102   No    259.1011        6.65         0.       0.     0.           0.
103   Lr    262.1098        4.9          0.       0.     0.           0.
104   Rf    261.1089        6.0          0.       0.     0.           0.
105   Db    262.1144        6.8          0.       0.     0.           0.
106   Sg    263.1188        7.8          0.       0.     0.           0.
107   Bh    262.1231        7.7          0.       0.     0.           0.
108   Hs    265.1306        7.6          0.       0.     0.           0.
109   Mt    266.1378        0.           0.       0.     0.           0.
