
             -----------------------
               TUSrcMultiCRs::TEST
             -----------------------

- Class content: Set single source (several species)point-like source (position and source spectrum)

 * Base class (including for spatial dist. w/wo free params):
   > SetClass(init_pars="inputs/init.TEST.par", group=ModelTEST, subgroup=SrcSteadyState, src_name=ASTRO_STD, is_verbose=false, f_log=f);
         ### Create steady-state source spatial distribution from template CASEBHATTA96

   > PrintSrc(f);
    Multi-CR source: ASTRO_STD (norm. parameter name 'q')
    --------------- 
       Loaded from $USINE/inputs/crcharts_Zmax30_ghost97.dat
        -> 27 CRs in ASTRO_STD
        2H-BAR,1H-BAR,1H,2H,3HE,4HE,12C,13C,14N,14C,15N,16O,17O,18O,19F,20NE,21NE,22NE,23NA,24MG,25MG,26MG,26AL,27AL,28SI,29SI,30SI
       [Source template]:
          Steady-state source = 2H-BAR ASTRO_STD
                - Spatial distribution
                   [formula] = pow(x/8.5,2.)*exp(-3.53*(x-8.5)/8.5)
                   - base variables: t,x,y,z
                   - user-defined variables: NONE
                - Spectrum
                   [formula] = q_2HBAR*beta^(eta_s)*Rig^(-alpha_HBAR)
                   - base variables: t,x,y,z,beta,gamma,p,Rig,Ek,Ekn,Etot
                   - user-defined variables: q_2HBAR,alpha_HBAR,eta_s

            => 40 free parameters:
                                                     q_2HBAR = +0.0000e+00 [(/GeV/n/m3/Myr)] {updated value}
                                                     q_1HBAR = +0.0000e+00 [(/GeV/n/m3/Myr)] {updated value}
                                                        q_1H = +4.0932e+09 [(/GeV/n/m3/Myr)] {updated value}
                                                        q_2H = +7.9405e+04 [(/GeV/n/m3/Myr)] {updated value}
                                                       q_3HE = +6.5335e+04 [(/GeV/n/m3/Myr)] {updated value}
                                                       q_4HE = +3.9362e+08 [(/GeV/n/m3/Myr)] {updated value}
                                                       q_12C = +2.2162e+06 [(/GeV/n/m3/Myr)] {updated value}
                                                       q_13C = +2.4824e+04 [(/GeV/n/m3/Myr)] {updated value}
                                                       q_14N = +3.2642e+05 [(/GeV/n/m3/Myr)] {updated value}
                                                       q_14C = +0.0000e+00 [(/GeV/n/m3/Myr)] {updated value}
                                                       q_15N = +1.2000e+03 [(/GeV/n/m3/Myr)] {updated value}
                                                       q_16O = +2.3688e+06 [(/GeV/n/m3/Myr)] {updated value}
                                                       q_17O = +8.8368e+02 [(/GeV/n/m3/Myr)] {updated value}
                                                       q_18O = +4.7494e+03 [(/GeV/n/m3/Myr)] {updated value}
                                                       q_19F = +1.4130e+02 [(/GeV/n/m3/Myr)] {updated value}
                                                      q_20NE = +3.3533e+05 [(/GeV/n/m3/Myr)] {updated value}
                                                      q_21NE = +8.0405e+02 [(/GeV/n/m3/Myr)] {updated value}
                                                      q_22NE = +2.4662e+04 [(/GeV/n/m3/Myr)] {updated value}
                                                      q_23NA = +5.7510e+04 [(/GeV/n/m3/Myr)] {updated value}
                                                      q_24MG = +6.7671e+05 [(/GeV/n/m3/Myr)] {updated value}
                                                      q_25MG = +8.5670e+04 [(/GeV/n/m3/Myr)] {updated value}
                                                      q_26MG = +9.4321e+04 [(/GeV/n/m3/Myr)] {updated value}
                                                      q_26AL = +0.0000e+00 [(/GeV/n/m3/Myr)] {updated value}
                                                      q_27AL = +8.4100e+04 [(/GeV/n/m3/Myr)] {updated value}
                                                      q_28SI = +6.7581e+05 [(/GeV/n/m3/Myr)] {updated value}
                                                      q_29SI = +3.4314e+04 [(/GeV/n/m3/Myr)] {updated value}
                                                      q_30SI = +2.2620e+04 [(/GeV/n/m3/Myr)] {updated value}
                                                  alpha_HBAR = +2.1000e+00 [-]              {updated value}
                                                     alpha_H = +2.1000e+00 [-]              {updated value}
                                                    alpha_HE = +2.2000e+00 [-]              {updated value}
                                                     alpha_C = +2.1000e+00 [-]              {updated value}
                                                     alpha_N = +2.1000e+00 [-]              {updated value}
                                                     alpha_O = +2.1000e+00 [-]              {updated value}
                                                     alpha_F = +2.1000e+00 [-]              {updated value}
                                                    alpha_NE = +2.1000e+00 [-]              {updated value}
                                                    alpha_NA = +2.1000e+00 [-]              {updated value}
                                                    alpha_MG = +2.1000e+00 [-]              {updated value}
                                                    alpha_AL = +2.1000e+00 [-]              {updated value}
                                                    alpha_SI = +2.1000e+00 [-]              {updated value}
                                                       eta_s = -1.0000e+00 [-]              {updated value}
   > PrintSrc(f, i_species=8);   [species=GetSpecies()->GetCREntry(8).GetName()=14N
    Steady-state source = 14N ASTRO_STD
          - Spatial distribution
             [formula] = pow(x/8.5,2.)*exp(-3.53*(x-8.5)/8.5)
             - base variables: t,x,y,z
             - user-defined variables: NONE
          - Spectrum
             [formula] = q_14N*beta^(eta_s)*Rig^(-alpha_N)
             - base variables: t,x,y,z,beta,gamma,p,Rig,Ek,Ekn,Etot
             - user-defined variables: q_14N,alpha_N,eta_s
   > GetNSpecies();   => 27
   > GetNFreePars();  => 40
   > GetSrc(=8)->GetSrcFreePars(is_spect_or_spatdist=true)->PrintPars(f);
      => 3 free parameters:
                                                 q_14N = +3.2642e+05 [(/GeV/n/m3/Myr)] {updated value}
                                               alpha_N = +2.1000e+00 [-]              {updated value}
                                                 eta_s = -1.0000e+00 [-]              {updated value}
   > GetSrc(i_species=8)->GetSrcFreePars(is_spect_or_spatdist=false)->PrintPars(f);
      => No free parameters
   > PrintSrc(f, i_species=4);   [species=GetSpecies()->GetCREntry(4).GetName()=3HE
    Steady-state source = 3HE ASTRO_STD
          - Spatial distribution
             [formula] = pow(x/8.5,2.)*exp(-3.53*(x-8.5)/8.5)
             - base variables: t,x,y,z
             - user-defined variables: NONE
          - Spectrum
             [formula] = q_3HE*beta^(eta_s)*Rig^(-alpha_HE)
             - base variables: t,x,y,z,beta,gamma,p,Rig,Ek,Ekn,Etot
             - user-defined variables: q_3HE,alpha_HE,eta_s
   > GetNSpecies();   => 27
   > GetNFreePars();  => 40
   > GetSrc(=4)->GetSrcFreePars(is_spect_or_spatdist=true)->PrintPars(f);
      => 3 free parameters:
                                                 q_3HE = +6.5335e+04 [(/GeV/n/m3/Myr)] {updated value}
                                              alpha_HE = +2.2000e+00 [-]              {updated value}
                                                 eta_s = -1.0000e+00 [-]              {updated value}
   > GetSrc(i_species=4)->GetSrcFreePars(is_spect_or_spatdist=false)->PrintPars(f);
      => No free parameters


   > SetClass(init_pars="inputs/init.TEST.par", group=Model2DKisoVc, subgroup=SrcSteadyState, src_name=ASTRO_STD, is_verbose=false, f_log=f);
         ### Create steady-state source spatial distribution from template CASEBHATTA96

   > PrintSrc(f);
    Multi-CR source: ASTRO_STD (norm. parameter name 'q')
    --------------- 
       Loaded from $USINE/inputs/crcharts_Zmax30_ghost97.dat
        -> 27 CRs in ASTRO_STD
        2H-BAR,1H-BAR,1H,2H,3HE,4HE,12C,13C,14N,14C,15N,16O,17O,18O,19F,20NE,21NE,22NE,23NA,24MG,25MG,26MG,26AL,27AL,28SI,29SI,30SI
       [Source template]:
          Steady-state source = 2H-BAR ASTRO_STD
                - Spatial distribution
                   [formula] = pow(x/8.5,2.)*exp(-3.53*(x-8.5)/8.5)
                   - base variables: t,x,y,z
                   - user-defined variables: NONE
                - Spectrum
                   [formula] = q_2HBAR*beta^(eta_s)*Rig^(-alpha_2HBAR)
                   - base variables: t,x,y,z,beta,gamma,p,Rig,Ek,Ekn,Etot
                   - user-defined variables: q_2HBAR,alpha_2HBAR,eta_s

            => 55 free parameters:
                                                     q_2HBAR = +0.0000e+00 [(/GeV/n/m3/Myr)] {updated value}
                                                     q_1HBAR = +0.0000e+00 [(/GeV/n/m3/Myr)] {updated value}
                                                        q_1H = +4.0932e+09 [(/GeV/n/m3/Myr)] {updated value}
                                                        q_2H = +7.9405e+04 [(/GeV/n/m3/Myr)] {updated value}
                                                       q_3HE = +6.5335e+04 [(/GeV/n/m3/Myr)] {updated value}
                                                       q_4HE = +3.9362e+08 [(/GeV/n/m3/Myr)] {updated value}
                                                       q_12C = +2.2162e+06 [(/GeV/n/m3/Myr)] {updated value}
                                                       q_13C = +2.4824e+04 [(/GeV/n/m3/Myr)] {updated value}
                                                       q_14N = +3.2642e+05 [(/GeV/n/m3/Myr)] {updated value}
                                                       q_14C = +0.0000e+00 [(/GeV/n/m3/Myr)] {updated value}
                                                       q_15N = +1.2000e+03 [(/GeV/n/m3/Myr)] {updated value}
                                                       q_16O = +2.3688e+06 [(/GeV/n/m3/Myr)] {updated value}
                                                       q_17O = +8.8368e+02 [(/GeV/n/m3/Myr)] {updated value}
                                                       q_18O = +4.7494e+03 [(/GeV/n/m3/Myr)] {updated value}
                                                       q_19F = +1.4130e+02 [(/GeV/n/m3/Myr)] {updated value}
                                                      q_20NE = +3.3533e+05 [(/GeV/n/m3/Myr)] {updated value}
                                                      q_21NE = +8.0405e+02 [(/GeV/n/m3/Myr)] {updated value}
                                                      q_22NE = +2.4662e+04 [(/GeV/n/m3/Myr)] {updated value}
                                                      q_23NA = +5.7510e+04 [(/GeV/n/m3/Myr)] {updated value}
                                                      q_24MG = +6.7671e+05 [(/GeV/n/m3/Myr)] {updated value}
                                                      q_25MG = +8.5670e+04 [(/GeV/n/m3/Myr)] {updated value}
                                                      q_26MG = +9.4321e+04 [(/GeV/n/m3/Myr)] {updated value}
                                                      q_26AL = +0.0000e+00 [(/GeV/n/m3/Myr)] {updated value}
                                                      q_27AL = +8.4100e+04 [(/GeV/n/m3/Myr)] {updated value}
                                                      q_28SI = +6.7581e+05 [(/GeV/n/m3/Myr)] {updated value}
                                                      q_29SI = +3.4314e+04 [(/GeV/n/m3/Myr)] {updated value}
                                                      q_30SI = +2.2620e+04 [(/GeV/n/m3/Myr)] {updated value}
                                                 alpha_2HBAR = +2.1000e+00 [-]              {updated value}
                                                 alpha_1HBAR = +2.1000e+00 [-]              {updated value}
                                                    alpha_1H = +2.1000e+00 [-]              {updated value}
                                                    alpha_2H = +2.1000e+00 [-]              {updated value}
                                                   alpha_3HE = +2.1000e+00 [-]              {updated value}
                                                   alpha_4HE = +2.2000e+00 [-]              {updated value}
                                                   alpha_12C = +2.1000e+00 [-]              {updated value}
                                                   alpha_13C = +2.1000e+00 [-]              {updated value}
                                                   alpha_14N = +2.1000e+00 [-]              {updated value}
                                                   alpha_14C = +2.1000e+00 [-]              {updated value}
                                                   alpha_15N = +2.1000e+00 [-]              {updated value}
                                                   alpha_16O = +2.1000e+00 [-]              {updated value}
                                                   alpha_17O = +2.1000e+00 [-]              {updated value}
                                                   alpha_18O = +2.1000e+00 [-]              {updated value}
                                                   alpha_19F = +2.1000e+00 [-]              {updated value}
                                                  alpha_20NE = +2.1000e+00 [-]              {updated value}
                                                  alpha_21NE = +2.1000e+00 [-]              {updated value}
                                                  alpha_22NE = +2.1000e+00 [-]              {updated value}
                                                  alpha_23NA = +2.1000e+00 [-]              {updated value}
                                                  alpha_24MG = +2.1000e+00 [-]              {updated value}
                                                  alpha_25MG = +2.1000e+00 [-]              {updated value}
                                                  alpha_26MG = +2.1000e+00 [-]              {updated value}
                                                  alpha_26AL = +2.1000e+00 [-]              {updated value}
                                                  alpha_27AL = +2.1000e+00 [-]              {updated value}
                                                  alpha_28SI = +2.1000e+00 [-]              {updated value}
                                                  alpha_29SI = +2.1000e+00 [-]              {updated value}
                                                  alpha_30SI = +2.1000e+00 [-]              {updated value}
                                                       eta_s = -1.0000e+00 [-]              {updated value}
   > PrintSrc(f, i_species=4)   [species=GetSpecies()->GetCREntry(4).GetName()=3HE
    Steady-state source = 3HE ASTRO_STD
          - Spatial distribution
             [formula] = pow(x/8.5,2.)*exp(-3.53*(x-8.5)/8.5)
             - base variables: t,x,y,z
             - user-defined variables: NONE
          - Spectrum
             [formula] = q_3HE*beta^(eta_s)*Rig^(-alpha_3HE)
             - base variables: t,x,y,z,beta,gamma,p,Rig,Ek,Ekn,Etot
             - user-defined variables: q_3HE,alpha_3HE,eta_s
   > GetNSpecies();   => 27
   > GetNFreePars();  => 55


 * Calculate spatial distribution and spectrum for various species.
   > TUCoordTXYZ coord_txyz; coord_txyz.SetValTXYZ(1., 2., 0., 3.); coord_txyz.PrintVals(f);
    vals_txyz=(1.000e+00,2.000e+00,0.000000e+00,3.000e+00)
   > TUCoordE coord_e;  ... set to {2., 2., 2....} for all E coordinates...; coord_e.PrintVals(f);
   > 
    vals_e=(2.000e+00,2.000e+00,2.000e+00,2.000e+00,2.000e+00,2.000e+00,2.000e+00) (halfbin_status=0)
   > ValueSrcSpatialDistrib(0, &coord_txyz)         =>  8.233069e-01;
   > ValueSrcSpectrum(0, &coord_e, &coord_txyz)     =>  0.000000e+00;
   > ValueSrcSpatialDistrib(4, &coord_txyz)         =>  8.233069e-01;
   > ValueSrcSpectrum(4, &coord_e, &coord_txyz)     =>  7.619987e+03;


 * N.B.: every time ValueXXX() or UpdateFromFreeParsAndResetStatus() is called, update all class members for all species.
   > GetFreePars()->GetParListStatus() = 0;
   > GetSrc(0)->GetSrcFreePars(is_spect_or_spatdist=true)->GetParListStatus() = 0;
   > GetSrc(4)->GetSrcFreePars(is_spect_or_spatdist=true)->GetParListStatus() = 0;
   ---
   > GetFreePars()->SetParVal(eta_s, 3.);
   > GetFreePars()->PrintPars(f);
      => 55 free parameters:
                                               q_2HBAR = +0.0000e+00 [(/GeV/n/m3/Myr)]
                                               q_1HBAR = +0.0000e+00 [(/GeV/n/m3/Myr)]
                                                  q_1H = +4.0932e+09 [(/GeV/n/m3/Myr)]
                                                  q_2H = +7.9405e+04 [(/GeV/n/m3/Myr)]
                                                 q_3HE = +6.5335e+04 [(/GeV/n/m3/Myr)]
                                                 q_4HE = +3.9362e+08 [(/GeV/n/m3/Myr)]
                                                 q_12C = +2.2162e+06 [(/GeV/n/m3/Myr)]
                                                 q_13C = +2.4824e+04 [(/GeV/n/m3/Myr)]
                                                 q_14N = +3.2642e+05 [(/GeV/n/m3/Myr)]
                                                 q_14C = +0.0000e+00 [(/GeV/n/m3/Myr)]
                                                 q_15N = +1.2000e+03 [(/GeV/n/m3/Myr)]
                                                 q_16O = +2.3688e+06 [(/GeV/n/m3/Myr)]
                                                 q_17O = +8.8368e+02 [(/GeV/n/m3/Myr)]
                                                 q_18O = +4.7494e+03 [(/GeV/n/m3/Myr)]
                                                 q_19F = +1.4130e+02 [(/GeV/n/m3/Myr)]
                                                q_20NE = +3.3533e+05 [(/GeV/n/m3/Myr)]
                                                q_21NE = +8.0405e+02 [(/GeV/n/m3/Myr)]
                                                q_22NE = +2.4662e+04 [(/GeV/n/m3/Myr)]
                                                q_23NA = +5.7510e+04 [(/GeV/n/m3/Myr)]
                                                q_24MG = +6.7671e+05 [(/GeV/n/m3/Myr)]
                                                q_25MG = +8.5670e+04 [(/GeV/n/m3/Myr)]
                                                q_26MG = +9.4321e+04 [(/GeV/n/m3/Myr)]
                                                q_26AL = +0.0000e+00 [(/GeV/n/m3/Myr)]
                                                q_27AL = +8.4100e+04 [(/GeV/n/m3/Myr)]
                                                q_28SI = +6.7581e+05 [(/GeV/n/m3/Myr)]
                                                q_29SI = +3.4314e+04 [(/GeV/n/m3/Myr)]
                                                q_30SI = +2.2620e+04 [(/GeV/n/m3/Myr)]
                                           alpha_2HBAR = +2.1000e+00 [-]             
                                           alpha_1HBAR = +2.1000e+00 [-]             
                                              alpha_1H = +2.1000e+00 [-]             
                                              alpha_2H = +2.1000e+00 [-]             
                                             alpha_3HE = +2.1000e+00 [-]             
                                             alpha_4HE = +2.2000e+00 [-]             
                                             alpha_12C = +2.1000e+00 [-]             
                                             alpha_13C = +2.1000e+00 [-]             
                                             alpha_14N = +2.1000e+00 [-]             
                                             alpha_14C = +2.1000e+00 [-]             
                                             alpha_15N = +2.1000e+00 [-]             
                                             alpha_16O = +2.1000e+00 [-]             
                                             alpha_17O = +2.1000e+00 [-]             
                                             alpha_18O = +2.1000e+00 [-]             
                                             alpha_19F = +2.1000e+00 [-]             
                                            alpha_20NE = +2.1000e+00 [-]             
                                            alpha_21NE = +2.1000e+00 [-]             
                                            alpha_22NE = +2.1000e+00 [-]             
                                            alpha_23NA = +2.1000e+00 [-]             
                                            alpha_24MG = +2.1000e+00 [-]             
                                            alpha_25MG = +2.1000e+00 [-]             
                                            alpha_26MG = +2.1000e+00 [-]             
                                            alpha_26AL = +2.1000e+00 [-]             
                                            alpha_27AL = +2.1000e+00 [-]             
                                            alpha_28SI = +2.1000e+00 [-]             
                                            alpha_29SI = +2.1000e+00 [-]             
                                            alpha_30SI = +2.1000e+00 [-]             
                                                 eta_s = +3.0000e+00 [-]              {updated value}
   > GetFreePars()->GetParListStatus() = 1;
   > GetSrc(0)->GetSrcFreePars(is_spect_or_spatdist=true)->PrintPars(f);
      => 3 free parameters:
                                               q_2HBAR = +0.0000e+00 [(/GeV/n/m3/Myr)]
                                           alpha_2HBAR = +2.1000e+00 [-]             
                                                 eta_s = +3.0000e+00 [-]              {updated value}
   > GetSrc(0)->GetSrcFreePars(is_spect_or_spatdist=true)->GetParListStatus() = 0;
   > GetSrc(4)->GetSrcFreePars(is_spect_or_spatdist=true)->PrintPars(f);
      => 3 free parameters:
                                                 q_3HE = +6.5335e+04 [(/GeV/n/m3/Myr)]
                                             alpha_3HE = +2.1000e+00 [-]             
                                                 eta_s = +3.0000e+00 [-]              {updated value}
   > GetSrc(4)->GetSrcFreePars(is_spect_or_spatdist=true)->GetParListStatus() = 0;
   ---
   > ValueSrcSpectrum(0, &coord_e, &coord_txyz)     =>  0.000000e+00;
   > ValueSrcSpectrum(4, &coord_e, &coord_txyz)     =>  1.219198e+05;
   > GetFreePars()->GetParListStatus() = 0;
   > GetSrc(0)->GetSrcFreePars(is_spect_or_spatdist=true)->GetParListStatus() = 0;
   > GetSrc(4)->GetSrcFreePars(is_spect_or_spatdist=true)->GetParListStatus() = 0;
   ---
   > GetFreePars()->SetParVal(q_1H, 1.e5);
      => 55 free parameters:
                                               q_2HBAR = +0.0000e+00 [(/GeV/n/m3/Myr)]
                                               q_1HBAR = +0.0000e+00 [(/GeV/n/m3/Myr)]
                                                  q_1H = +1.0000e+05 [(/GeV/n/m3/Myr)] {updated value}
                                                  q_2H = +7.9405e+04 [(/GeV/n/m3/Myr)]
                                                 q_3HE = +6.5335e+04 [(/GeV/n/m3/Myr)]
                                                 q_4HE = +3.9362e+08 [(/GeV/n/m3/Myr)]
                                                 q_12C = +2.2162e+06 [(/GeV/n/m3/Myr)]
                                                 q_13C = +2.4824e+04 [(/GeV/n/m3/Myr)]
                                                 q_14N = +3.2642e+05 [(/GeV/n/m3/Myr)]
                                                 q_14C = +0.0000e+00 [(/GeV/n/m3/Myr)]
                                                 q_15N = +1.2000e+03 [(/GeV/n/m3/Myr)]
                                                 q_16O = +2.3688e+06 [(/GeV/n/m3/Myr)]
                                                 q_17O = +8.8368e+02 [(/GeV/n/m3/Myr)]
                                                 q_18O = +4.7494e+03 [(/GeV/n/m3/Myr)]
                                                 q_19F = +1.4130e+02 [(/GeV/n/m3/Myr)]
                                                q_20NE = +3.3533e+05 [(/GeV/n/m3/Myr)]
                                                q_21NE = +8.0405e+02 [(/GeV/n/m3/Myr)]
                                                q_22NE = +2.4662e+04 [(/GeV/n/m3/Myr)]
                                                q_23NA = +5.7510e+04 [(/GeV/n/m3/Myr)]
                                                q_24MG = +6.7671e+05 [(/GeV/n/m3/Myr)]
                                                q_25MG = +8.5670e+04 [(/GeV/n/m3/Myr)]
                                                q_26MG = +9.4321e+04 [(/GeV/n/m3/Myr)]
                                                q_26AL = +0.0000e+00 [(/GeV/n/m3/Myr)]
                                                q_27AL = +8.4100e+04 [(/GeV/n/m3/Myr)]
                                                q_28SI = +6.7581e+05 [(/GeV/n/m3/Myr)]
                                                q_29SI = +3.4314e+04 [(/GeV/n/m3/Myr)]
                                                q_30SI = +2.2620e+04 [(/GeV/n/m3/Myr)]
                                           alpha_2HBAR = +2.1000e+00 [-]             
                                           alpha_1HBAR = +2.1000e+00 [-]             
                                              alpha_1H = +2.1000e+00 [-]             
                                              alpha_2H = +2.1000e+00 [-]             
                                             alpha_3HE = +2.1000e+00 [-]             
                                             alpha_4HE = +2.2000e+00 [-]             
                                             alpha_12C = +2.1000e+00 [-]             
                                             alpha_13C = +2.1000e+00 [-]             
                                             alpha_14N = +2.1000e+00 [-]             
                                             alpha_14C = +2.1000e+00 [-]             
                                             alpha_15N = +2.1000e+00 [-]             
                                             alpha_16O = +2.1000e+00 [-]             
                                             alpha_17O = +2.1000e+00 [-]             
                                             alpha_18O = +2.1000e+00 [-]             
                                             alpha_19F = +2.1000e+00 [-]             
                                            alpha_20NE = +2.1000e+00 [-]             
                                            alpha_21NE = +2.1000e+00 [-]             
                                            alpha_22NE = +2.1000e+00 [-]             
                                            alpha_23NA = +2.1000e+00 [-]             
                                            alpha_24MG = +2.1000e+00 [-]             
                                            alpha_25MG = +2.1000e+00 [-]             
                                            alpha_26MG = +2.1000e+00 [-]             
                                            alpha_26AL = +2.1000e+00 [-]             
                                            alpha_27AL = +2.1000e+00 [-]             
                                            alpha_28SI = +2.1000e+00 [-]             
                                            alpha_29SI = +2.1000e+00 [-]             
                                            alpha_30SI = +2.1000e+00 [-]             
                                                 eta_s = +3.0000e+00 [-]             
   > GetFreePars()->GetParListStatus() = 1;
   > GetSrc(0)->GetSrcFreePars(is_spect_or_spatdist=true)->PrintPars(f);
      => 3 free parameters:
                                               q_2HBAR = +0.0000e+00 [(/GeV/n/m3/Myr)]
                                           alpha_2HBAR = +2.1000e+00 [-]             
                                                 eta_s = +3.0000e+00 [-]             
   > GetSrc(0)->GetSrcFreePars(is_spect_or_spatdist=true)->GetParListStatus() = 0;
   > GetSrc(4)->GetSrcFreePars(is_spect_or_spatdist=true)->PrintPars(f);
      => 3 free parameters:
                                                 q_3HE = +6.5335e+04 [(/GeV/n/m3/Myr)]
                                             alpha_3HE = +2.1000e+00 [-]             
                                                 eta_s = +3.0000e+00 [-]             
   > GetSrc(4)->GetSrcFreePars(is_spect_or_spatdist=true)->GetParListStatus() = 0;
   > UpdateFromFreeParsAndResetStatus();
   > GetFreePars()->GetParListStatus() = 0;
   > GetSrc(0)->GetSrcFreePars(is_spect_or_spatdist=true)->GetParListStatus() = 0;
   > GetSrc(4)->GetSrcFreePars(is_spect_or_spatdist=true)->GetParListStatus() = 0;
   ---
   > ValueSrcSpectrum(0, &coord_e, &coord_txyz)     =>  0.000000e+00;
   > ValueSrcSpectrum(4, &coord_e, &coord_txyz)     =>  1.219198e+05;


 * Mapping of 'CR list <-> src species' indices:
fMapCR2SrcIndices=34   fMapSrc2CRIndices=27
    - CR[i_cr= 0]=2H-BAR   => i_src=IndexCRInSrcSpecies(i_cr)=0 => i_cr=IndexSrcSpeciesInCRList(i_src)=0  Species[i_src= 0]=2H-BAR
    - CR[i_cr= 1]=1H-BAR   => i_src=IndexCRInSrcSpecies(i_cr)=1 => i_cr=IndexSrcSpeciesInCRList(i_src)=1  Species[i_src= 1]=1H-BAR
    - CR[i_cr= 2]=    1H   => i_src=IndexCRInSrcSpecies(i_cr)=2 => i_cr=IndexSrcSpeciesInCRList(i_src)=2  Species[i_src= 2]=    1H
    - CR[i_cr= 3]=    2H   => i_src=IndexCRInSrcSpecies(i_cr)=3 => i_cr=IndexSrcSpeciesInCRList(i_src)=3  Species[i_src= 3]=    2H
    - CR[i_cr= 4]=   3HE   => i_src=IndexCRInSrcSpecies(i_cr)=4 => i_cr=IndexSrcSpeciesInCRList(i_src)=4  Species[i_src= 4]=   3HE
    - CR[i_cr= 5]=   4HE   => i_src=IndexCRInSrcSpecies(i_cr)=5 => i_cr=IndexSrcSpeciesInCRList(i_src)=5  Species[i_src= 5]=   4HE
    - CR[i_cr= 6]=   6LI   => i_src=IndexCRInSrcSpecies(i_cr)=-1 => species not in src!
    - CR[i_cr= 7]=   7LI   => i_src=IndexCRInSrcSpecies(i_cr)=-1 => species not in src!
    - CR[i_cr= 8]=   7BE   => i_src=IndexCRInSrcSpecies(i_cr)=-1 => species not in src!
    - CR[i_cr= 9]=   9BE   => i_src=IndexCRInSrcSpecies(i_cr)=-1 => species not in src!
    - CR[i_cr=10]=   10B   => i_src=IndexCRInSrcSpecies(i_cr)=-1 => species not in src!
    - CR[i_cr=11]=  10BE   => i_src=IndexCRInSrcSpecies(i_cr)=-1 => species not in src!
    - CR[i_cr=12]=   11B   => i_src=IndexCRInSrcSpecies(i_cr)=-1 => species not in src!
    - CR[i_cr=13]=   12C   => i_src=IndexCRInSrcSpecies(i_cr)=6 => i_cr=IndexSrcSpeciesInCRList(i_src)=13  Species[i_src= 6]=   12C
    - CR[i_cr=14]=   13C   => i_src=IndexCRInSrcSpecies(i_cr)=7 => i_cr=IndexSrcSpeciesInCRList(i_src)=14  Species[i_src= 7]=   13C
    - CR[i_cr=15]=   14N   => i_src=IndexCRInSrcSpecies(i_cr)=8 => i_cr=IndexSrcSpeciesInCRList(i_src)=15  Species[i_src= 8]=   14N
    - CR[i_cr=16]=   14C   => i_src=IndexCRInSrcSpecies(i_cr)=9 => i_cr=IndexSrcSpeciesInCRList(i_src)=16  Species[i_src= 9]=   14C
    - CR[i_cr=17]=   15N   => i_src=IndexCRInSrcSpecies(i_cr)=10 => i_cr=IndexSrcSpeciesInCRList(i_src)=17  Species[i_src=10]=   15N
    - CR[i_cr=18]=   16O   => i_src=IndexCRInSrcSpecies(i_cr)=11 => i_cr=IndexSrcSpeciesInCRList(i_src)=18  Species[i_src=11]=   16O
    - CR[i_cr=19]=   17O   => i_src=IndexCRInSrcSpecies(i_cr)=12 => i_cr=IndexSrcSpeciesInCRList(i_src)=19  Species[i_src=12]=   17O
    - CR[i_cr=20]=   18O   => i_src=IndexCRInSrcSpecies(i_cr)=13 => i_cr=IndexSrcSpeciesInCRList(i_src)=20  Species[i_src=13]=   18O
    - CR[i_cr=21]=   19F   => i_src=IndexCRInSrcSpecies(i_cr)=14 => i_cr=IndexSrcSpeciesInCRList(i_src)=21  Species[i_src=14]=   19F
    - CR[i_cr=22]=  20NE   => i_src=IndexCRInSrcSpecies(i_cr)=15 => i_cr=IndexSrcSpeciesInCRList(i_src)=22  Species[i_src=15]=  20NE
    - CR[i_cr=23]=  21NE   => i_src=IndexCRInSrcSpecies(i_cr)=16 => i_cr=IndexSrcSpeciesInCRList(i_src)=23  Species[i_src=16]=  21NE
    - CR[i_cr=24]=  22NE   => i_src=IndexCRInSrcSpecies(i_cr)=17 => i_cr=IndexSrcSpeciesInCRList(i_src)=24  Species[i_src=17]=  22NE
    - CR[i_cr=25]=  23NA   => i_src=IndexCRInSrcSpecies(i_cr)=18 => i_cr=IndexSrcSpeciesInCRList(i_src)=25  Species[i_src=18]=  23NA
    - CR[i_cr=26]=  24MG   => i_src=IndexCRInSrcSpecies(i_cr)=19 => i_cr=IndexSrcSpeciesInCRList(i_src)=26  Species[i_src=19]=  24MG
    - CR[i_cr=27]=  25MG   => i_src=IndexCRInSrcSpecies(i_cr)=20 => i_cr=IndexSrcSpeciesInCRList(i_src)=27  Species[i_src=20]=  25MG
    - CR[i_cr=28]=  26MG   => i_src=IndexCRInSrcSpecies(i_cr)=21 => i_cr=IndexSrcSpeciesInCRList(i_src)=28  Species[i_src=21]=  26MG
    - CR[i_cr=29]=  26AL   => i_src=IndexCRInSrcSpecies(i_cr)=22 => i_cr=IndexSrcSpeciesInCRList(i_src)=29  Species[i_src=22]=  26AL
    - CR[i_cr=30]=  27AL   => i_src=IndexCRInSrcSpecies(i_cr)=23 => i_cr=IndexSrcSpeciesInCRList(i_src)=30  Species[i_src=23]=  27AL
    - CR[i_cr=31]=  28SI   => i_src=IndexCRInSrcSpecies(i_cr)=24 => i_cr=IndexSrcSpeciesInCRList(i_src)=31  Species[i_src=24]=  28SI
    - CR[i_cr=32]=  29SI   => i_src=IndexCRInSrcSpecies(i_cr)=25 => i_cr=IndexSrcSpeciesInCRList(i_src)=32  Species[i_src=25]=  29SI
    - CR[i_cr=33]=  30SI   => i_src=IndexCRInSrcSpecies(i_cr)=26 => i_cr=IndexSrcSpeciesInCRList(i_src)=33  Species[i_src=26]=  30SI


 * Test Copy method:
   > TUSrcMultiCRs src_multicrs; src_multicrs.Copy(*this);
   > src_multicrs.PrintSrc(f);
    Multi-CR source: ASTRO_STD (norm. parameter name '')
    --------------- 
       Loaded from $USINE/inputs/crcharts_Zmax30_ghost97.dat
        -> 27 CRs in ASTRO_STD
        2H-BAR,1H-BAR,1H,2H,3HE,4HE,12C,13C,14N,14C,15N,16O,17O,18O,19F,20NE,21NE,22NE,23NA,24MG,25MG,26MG,26AL,27AL,28SI,29SI,30SI
       [Source template]:
          Steady-state source = 2H-BAR ASTRO_STD
                - Spatial distribution
                   [formula] = pow(x/8.5,2.)*exp(-3.53*(x-8.5)/8.5)
                   - base variables: t,x,y,z
                   - user-defined variables: NONE
                - Spectrum
                   [formula] = q_2HBAR*beta^(eta_s)*Rig^(-alpha_2HBAR)
                   - base variables: t,x,y,z,beta,gamma,p,Rig,Ek,Ekn,Etot
                   - user-defined variables: q_2HBAR,alpha_2HBAR,eta_s

            => 55 free parameters:
                                                     q_2HBAR = +0.0000e+00 [(/GeV/n/m3/Myr)]
                                                     q_1HBAR = +0.0000e+00 [(/GeV/n/m3/Myr)]
                                                        q_1H = +1.0000e+05 [(/GeV/n/m3/Myr)]
                                                        q_2H = +7.9405e+04 [(/GeV/n/m3/Myr)]
                                                       q_3HE = +6.5335e+04 [(/GeV/n/m3/Myr)]
                                                       q_4HE = +3.9362e+08 [(/GeV/n/m3/Myr)]
                                                       q_12C = +2.2162e+06 [(/GeV/n/m3/Myr)]
                                                       q_13C = +2.4824e+04 [(/GeV/n/m3/Myr)]
                                                       q_14N = +3.2642e+05 [(/GeV/n/m3/Myr)]
                                                       q_14C = +0.0000e+00 [(/GeV/n/m3/Myr)]
                                                       q_15N = +1.2000e+03 [(/GeV/n/m3/Myr)]
                                                       q_16O = +2.3688e+06 [(/GeV/n/m3/Myr)]
                                                       q_17O = +8.8368e+02 [(/GeV/n/m3/Myr)]
                                                       q_18O = +4.7494e+03 [(/GeV/n/m3/Myr)]
                                                       q_19F = +1.4130e+02 [(/GeV/n/m3/Myr)]
                                                      q_20NE = +3.3533e+05 [(/GeV/n/m3/Myr)]
                                                      q_21NE = +8.0405e+02 [(/GeV/n/m3/Myr)]
                                                      q_22NE = +2.4662e+04 [(/GeV/n/m3/Myr)]
                                                      q_23NA = +5.7510e+04 [(/GeV/n/m3/Myr)]
                                                      q_24MG = +6.7671e+05 [(/GeV/n/m3/Myr)]
                                                      q_25MG = +8.5670e+04 [(/GeV/n/m3/Myr)]
                                                      q_26MG = +9.4321e+04 [(/GeV/n/m3/Myr)]
                                                      q_26AL = +0.0000e+00 [(/GeV/n/m3/Myr)]
                                                      q_27AL = +8.4100e+04 [(/GeV/n/m3/Myr)]
                                                      q_28SI = +6.7581e+05 [(/GeV/n/m3/Myr)]
                                                      q_29SI = +3.4314e+04 [(/GeV/n/m3/Myr)]
                                                      q_30SI = +2.2620e+04 [(/GeV/n/m3/Myr)]
                                                 alpha_2HBAR = +2.1000e+00 [-]             
                                                 alpha_1HBAR = +2.1000e+00 [-]             
                                                    alpha_1H = +2.1000e+00 [-]             
                                                    alpha_2H = +2.1000e+00 [-]             
                                                   alpha_3HE = +2.1000e+00 [-]             
                                                   alpha_4HE = +2.2000e+00 [-]             
                                                   alpha_12C = +2.1000e+00 [-]             
                                                   alpha_13C = +2.1000e+00 [-]             
                                                   alpha_14N = +2.1000e+00 [-]             
                                                   alpha_14C = +2.1000e+00 [-]             
                                                   alpha_15N = +2.1000e+00 [-]             
                                                   alpha_16O = +2.1000e+00 [-]             
                                                   alpha_17O = +2.1000e+00 [-]             
                                                   alpha_18O = +2.1000e+00 [-]             
                                                   alpha_19F = +2.1000e+00 [-]             
                                                  alpha_20NE = +2.1000e+00 [-]             
                                                  alpha_21NE = +2.1000e+00 [-]             
                                                  alpha_22NE = +2.1000e+00 [-]             
                                                  alpha_23NA = +2.1000e+00 [-]             
                                                  alpha_24MG = +2.1000e+00 [-]             
                                                  alpha_25MG = +2.1000e+00 [-]             
                                                  alpha_26MG = +2.1000e+00 [-]             
                                                  alpha_26AL = +2.1000e+00 [-]             
                                                  alpha_27AL = +2.1000e+00 [-]             
                                                  alpha_28SI = +2.1000e+00 [-]             
                                                  alpha_29SI = +2.1000e+00 [-]             
                                                  alpha_30SI = +2.1000e+00 [-]             
                                                       eta_s = +3.0000e+00 [-]             

 * Modify parameters:
   > PrintSrc(f);
    Multi-CR source: ASTRO_STD (norm. parameter name 'q')
    --------------- 
       Loaded from $USINE/inputs/crcharts_Zmax30_ghost97.dat
        -> 27 CRs in ASTRO_STD
        2H-BAR,1H-BAR,1H,2H,3HE,4HE,12C,13C,14N,14C,15N,16O,17O,18O,19F,20NE,21NE,22NE,23NA,24MG,25MG,26MG,26AL,27AL,28SI,29SI,30SI
       [Source template]:
          Steady-state source = 2H-BAR ASTRO_STD
                - Spatial distribution
                   [formula] = pow(x/8.5,2.)*exp(-3.53*(x-8.5)/8.5)
                   - base variables: t,x,y,z
                   - user-defined variables: NONE
                - Spectrum
                   [formula] = q_2HBAR*beta^(eta_s)*Rig^(-alpha_2HBAR)
                   - base variables: t,x,y,z,beta,gamma,p,Rig,Ek,Ekn,Etot
                   - user-defined variables: q_2HBAR,alpha_2HBAR,eta_s

            => 55 free parameters:
                                                     q_2HBAR = +0.0000e+00 [(/GeV/n/m3/Myr)]
                                                     q_1HBAR = +0.0000e+00 [(/GeV/n/m3/Myr)]
                                                        q_1H = +1.0000e+05 [(/GeV/n/m3/Myr)]
                                                        q_2H = +7.9405e+04 [(/GeV/n/m3/Myr)]
                                                       q_3HE = +6.5335e+04 [(/GeV/n/m3/Myr)]
                                                       q_4HE = +3.9362e+08 [(/GeV/n/m3/Myr)]
                                                       q_12C = +2.2162e+06 [(/GeV/n/m3/Myr)]
                                                       q_13C = +2.4824e+04 [(/GeV/n/m3/Myr)]
                                                       q_14N = +3.2642e+05 [(/GeV/n/m3/Myr)]
                                                       q_14C = +0.0000e+00 [(/GeV/n/m3/Myr)]
                                                       q_15N = +1.2000e+03 [(/GeV/n/m3/Myr)]
                                                       q_16O = +2.3688e+06 [(/GeV/n/m3/Myr)]
                                                       q_17O = +8.8368e+02 [(/GeV/n/m3/Myr)]
                                                       q_18O = +4.7494e+03 [(/GeV/n/m3/Myr)]
                                                       q_19F = +1.4130e+02 [(/GeV/n/m3/Myr)]
                                                      q_20NE = +3.3533e+05 [(/GeV/n/m3/Myr)]
                                                      q_21NE = +8.0405e+02 [(/GeV/n/m3/Myr)]
                                                      q_22NE = +2.4662e+04 [(/GeV/n/m3/Myr)]
                                                      q_23NA = +5.7510e+04 [(/GeV/n/m3/Myr)]
                                                      q_24MG = +6.7671e+05 [(/GeV/n/m3/Myr)]
                                                      q_25MG = +8.5670e+04 [(/GeV/n/m3/Myr)]
                                                      q_26MG = +9.4321e+04 [(/GeV/n/m3/Myr)]
                                                      q_26AL = +0.0000e+00 [(/GeV/n/m3/Myr)]
                                                      q_27AL = +8.4100e+04 [(/GeV/n/m3/Myr)]
                                                      q_28SI = +6.7581e+05 [(/GeV/n/m3/Myr)]
                                                      q_29SI = +3.4314e+04 [(/GeV/n/m3/Myr)]
                                                      q_30SI = +2.2620e+04 [(/GeV/n/m3/Myr)]
                                                 alpha_2HBAR = +2.1000e+00 [-]             
                                                 alpha_1HBAR = +2.1000e+00 [-]             
                                                    alpha_1H = +2.1000e+00 [-]             
                                                    alpha_2H = +2.1000e+00 [-]             
                                                   alpha_3HE = +2.1000e+00 [-]             
                                                   alpha_4HE = +2.2000e+00 [-]             
                                                   alpha_12C = +2.1000e+00 [-]             
                                                   alpha_13C = +2.1000e+00 [-]             
                                                   alpha_14N = +2.1000e+00 [-]             
                                                   alpha_14C = +2.1000e+00 [-]             
                                                   alpha_15N = +2.1000e+00 [-]             
                                                   alpha_16O = +2.1000e+00 [-]             
                                                   alpha_17O = +2.1000e+00 [-]             
                                                   alpha_18O = +2.1000e+00 [-]             
                                                   alpha_19F = +2.1000e+00 [-]             
                                                  alpha_20NE = +2.1000e+00 [-]             
                                                  alpha_21NE = +2.1000e+00 [-]             
                                                  alpha_22NE = +2.1000e+00 [-]             
                                                  alpha_23NA = +2.1000e+00 [-]             
                                                  alpha_24MG = +2.1000e+00 [-]             
                                                  alpha_25MG = +2.1000e+00 [-]             
                                                  alpha_26MG = +2.1000e+00 [-]             
                                                  alpha_26AL = +2.1000e+00 [-]             
                                                  alpha_27AL = +2.1000e+00 [-]             
                                                  alpha_28SI = +2.1000e+00 [-]             
                                                  alpha_29SI = +2.1000e+00 [-]             
                                                  alpha_30SI = +2.1000e+00 [-]             
                                                       eta_s = +3.0000e+00 [-]             
   > TUI_ModifyFreeParameters();  [uncomment in TEST() to enable it]
   > PrintSrc(f);
    Multi-CR source: ASTRO_STD (norm. parameter name 'q')
    --------------- 
       Loaded from $USINE/inputs/crcharts_Zmax30_ghost97.dat
        -> 27 CRs in ASTRO_STD
        2H-BAR,1H-BAR,1H,2H,3HE,4HE,12C,13C,14N,14C,15N,16O,17O,18O,19F,20NE,21NE,22NE,23NA,24MG,25MG,26MG,26AL,27AL,28SI,29SI,30SI
       [Source template]:
          Steady-state source = 2H-BAR ASTRO_STD
                - Spatial distribution
                   [formula] = pow(x/8.5,2.)*exp(-3.53*(x-8.5)/8.5)
                   - base variables: t,x,y,z
                   - user-defined variables: NONE
                - Spectrum
                   [formula] = q_2HBAR*beta^(eta_s)*Rig^(-alpha_2HBAR)
                   - base variables: t,x,y,z,beta,gamma,p,Rig,Ek,Ekn,Etot
                   - user-defined variables: q_2HBAR,alpha_2HBAR,eta_s

            => 55 free parameters:
                                                     q_2HBAR = +0.0000e+00 [(/GeV/n/m3/Myr)]
                                                     q_1HBAR = +0.0000e+00 [(/GeV/n/m3/Myr)]
                                                        q_1H = +1.0000e+05 [(/GeV/n/m3/Myr)]
                                                        q_2H = +7.9405e+04 [(/GeV/n/m3/Myr)]
                                                       q_3HE = +6.5335e+04 [(/GeV/n/m3/Myr)]
                                                       q_4HE = +3.9362e+08 [(/GeV/n/m3/Myr)]
                                                       q_12C = +2.2162e+06 [(/GeV/n/m3/Myr)]
                                                       q_13C = +2.4824e+04 [(/GeV/n/m3/Myr)]
                                                       q_14N = +3.2642e+05 [(/GeV/n/m3/Myr)]
                                                       q_14C = +0.0000e+00 [(/GeV/n/m3/Myr)]
                                                       q_15N = +1.2000e+03 [(/GeV/n/m3/Myr)]
                                                       q_16O = +2.3688e+06 [(/GeV/n/m3/Myr)]
                                                       q_17O = +8.8368e+02 [(/GeV/n/m3/Myr)]
                                                       q_18O = +4.7494e+03 [(/GeV/n/m3/Myr)]
                                                       q_19F = +1.4130e+02 [(/GeV/n/m3/Myr)]
                                                      q_20NE = +3.3533e+05 [(/GeV/n/m3/Myr)]
                                                      q_21NE = +8.0405e+02 [(/GeV/n/m3/Myr)]
                                                      q_22NE = +2.4662e+04 [(/GeV/n/m3/Myr)]
                                                      q_23NA = +5.7510e+04 [(/GeV/n/m3/Myr)]
                                                      q_24MG = +6.7671e+05 [(/GeV/n/m3/Myr)]
                                                      q_25MG = +8.5670e+04 [(/GeV/n/m3/Myr)]
                                                      q_26MG = +9.4321e+04 [(/GeV/n/m3/Myr)]
                                                      q_26AL = +0.0000e+00 [(/GeV/n/m3/Myr)]
                                                      q_27AL = +8.4100e+04 [(/GeV/n/m3/Myr)]
                                                      q_28SI = +6.7581e+05 [(/GeV/n/m3/Myr)]
                                                      q_29SI = +3.4314e+04 [(/GeV/n/m3/Myr)]
                                                      q_30SI = +2.2620e+04 [(/GeV/n/m3/Myr)]
                                                 alpha_2HBAR = +2.1000e+00 [-]             
                                                 alpha_1HBAR = +2.1000e+00 [-]             
                                                    alpha_1H = +2.1000e+00 [-]             
                                                    alpha_2H = +2.1000e+00 [-]             
                                                   alpha_3HE = +2.1000e+00 [-]             
                                                   alpha_4HE = +2.2000e+00 [-]             
                                                   alpha_12C = +2.1000e+00 [-]             
                                                   alpha_13C = +2.1000e+00 [-]             
                                                   alpha_14N = +2.1000e+00 [-]             
                                                   alpha_14C = +2.1000e+00 [-]             
                                                   alpha_15N = +2.1000e+00 [-]             
                                                   alpha_16O = +2.1000e+00 [-]             
                                                   alpha_17O = +2.1000e+00 [-]             
                                                   alpha_18O = +2.1000e+00 [-]             
                                                   alpha_19F = +2.1000e+00 [-]             
                                                  alpha_20NE = +2.1000e+00 [-]             
                                                  alpha_21NE = +2.1000e+00 [-]             
                                                  alpha_22NE = +2.1000e+00 [-]             
                                                  alpha_23NA = +2.1000e+00 [-]             
                                                  alpha_24MG = +2.1000e+00 [-]             
                                                  alpha_25MG = +2.1000e+00 [-]             
                                                  alpha_26MG = +2.1000e+00 [-]             
                                                  alpha_26AL = +2.1000e+00 [-]             
                                                  alpha_27AL = +2.1000e+00 [-]             
                                                  alpha_28SI = +2.1000e+00 [-]             
                                                  alpha_29SI = +2.1000e+00 [-]             
                                                  alpha_30SI = +2.1000e+00 [-]             
                                                       eta_s = +3.0000e+00 [-]             

