
            ------------------------
              TUInteractions::TEST
            ------------------------

- Class content: Contains the description of many physics processes
(energy losses, attachment and stripping X-sec,...)

 * Check consistency ion/coulomb
   > TUCREntry cr; cr.SetEntry("12C", f_charts);
   > cr.Print(f);
      6   12        12C   1.118e+01 GeV   2.471 fm | STABLE 

   > TUMediumEntry ism; ism.SetElements("H,He"); ism.SetPlasmaT(1.e4);
   > ism.SetDensity(i_elem=1,0.1 [/cm3]); ism.DensityH(HI=0.867, HII=0.033, H2=0.);
   > ism.Print();
      HI                 = 8.670e-01 [cm^-3]
      HII                = 3.300e-02 [cm^-3]
      H2                 = 0.000e+00 [cm^-3]
      H                  = 9.000e-01 [cm^-3]
      HE                 = 1.000e-01 [cm^-3]
      Plasma Density     = 3.300e-02 [cm^-3]
      Plasma Temperature = 1.000e+04 [K]

   > TUAtomProperties atom_prop; atom_prop.SetClass(f_atom);

  12C: A= 12  Z=  6  m(amu)=12.000
   ekn(GeV)     ion      coul      tot1       tot2    (GeV/Myr)
   1.00e-01  -3.57e-01  -5.07e-02  -4.08e-01  -4.08e-01
   2.00e-01  -2.88e-01  -3.90e-02  -3.27e-01  -3.27e-01
   4.00e-01  -2.43e-01  -3.15e-02  -2.74e-01  -2.74e-01
   8.00e-01  -2.19e-01  -2.71e-02  -2.46e-01  -2.46e-01
   1.60e+00  -2.13e-01  -2.49e-02  -2.38e-01  -2.38e-01
   3.20e+00  -2.20e-01  -2.41e-02  -2.44e-01  -2.44e-01
   6.40e+00  -2.36e-01  -2.40e-02  -2.60e-01  -2.60e-01
   1.28e+01  -2.56e-01  -2.43e-02  -2.80e-01  -2.80e-01
   2.56e+01  -2.77e-01  -2.46e-02  -3.02e-01  -3.02e-01
   5.12e+01  -3.00e-01  -2.50e-02  -3.25e-01  -3.25e-01
   1.02e+02  -3.23e-01  -2.54e-02  -3.48e-01  -3.48e-01
   2.05e+02  -3.46e-01  -2.58e-02  -3.72e-01  -3.72e-01
   4.10e+02  -3.69e-01  -2.62e-02  -3.95e-01  -3.95e-01
   8.19e+02  -3.92e-01  -2.65e-02  -4.18e-01  -4.18e-01

  16O: A= 16  Z=  8  m(amu)=15.995
   ekn(GeV)     ion      coul      tot1       tot2    (GeV/Myr)
   1.00e-01  -6.35e-01  -9.01e-02  -7.25e-01  -7.25e-01
   2.00e-01  -5.12e-01  -6.93e-02  -5.81e-01  -5.81e-01
   4.00e-01  -4.32e-01  -5.60e-02  -4.88e-01  -4.88e-01
   8.00e-01  -3.89e-01  -4.81e-02  -4.37e-01  -4.37e-01
   1.60e+00  -3.79e-01  -4.43e-02  -4.23e-01  -4.23e-01
   3.20e+00  -3.92e-01  -4.29e-02  -4.35e-01  -4.35e-01
   6.40e+00  -4.19e-01  -4.27e-02  -4.62e-01  -4.62e-01
   1.28e+01  -4.54e-01  -4.31e-02  -4.98e-01  -4.98e-01
   2.56e+01  -4.93e-01  -4.37e-02  -5.37e-01  -5.37e-01
   5.12e+01  -5.33e-01  -4.44e-02  -5.77e-01  -5.77e-01
   1.02e+02  -5.74e-01  -4.51e-02  -6.19e-01  -6.19e-01
   2.05e+02  -6.15e-01  -4.58e-02  -6.61e-01  -6.61e-01
   4.10e+02  -6.56e-01  -4.65e-02  -7.02e-01  -7.02e-01
   8.19e+02  -6.97e-01  -4.72e-02  -7.44e-01  -7.44e-01

EC: TO DO!
